23-pres.utf8
…
```r
sim1_dist <- function(a1, a2) {
  measure_distance(c(a1, a2), sim1)
}

modelos <- modelos %>%
  mutate(dist = purrr::map2_dbl(a1, a2, sim1_dist))
modelos
```

```
## # A tibble: 250 x 3
##         a1      a2  dist
##      <dbl>   <dbl> <dbl>
##  1   6.91   2.55    6.03
##  2   0.642 -3.92   40.3 
##  3  28.7   -2.64   13.7 
##  4  26.9    4.42   36.4 
##  5   9.94   3.95   17.2 
##  6   1.61   3.70    8.26
##  7  32.1   -3.44   16.1 
##  8 -15.1   -0.708  35.5 
##  9 -19.9   -0.490  38.9 
## 10  11.0    0.0815  7.29
## # … with 240 more rows
```
…
---

## add_residuals()
Notar que usamos __el data frame original y no no una grilla manufacturada.__´ Esto es porque para calcular los residuos se necesitan los valores de “y”.

```r
sim1 <- sim1 %>%
  add_residuals(sim1_mod)
sim1
```

```
## # A tibble: 30 x 3
##        x     y    resid
##    <int> <dbl>    <dbl>
##  1     1  4.20 -2.07   
##  2     1  7.51  1.24   
##  3     1  2.13 -4.15   
##  4     2  8.99  0.665  
##  5     2 10.2   1.92   
##  6     2 11.3   2.97   
##  7     3  7.36 -3.02   
##  8     3 10.5   0.130  
##  9     3 10.5   0.136  
## 10     4 12.4   0.00763
## # … with 20 more rows
```
…
2. Para generar predicciones de ambos modelos simultáneamente, podemos usar __gather_predictions()__ que incorpora cada predicción como una fila. El complemento de __gather_predictions()__ es __spread_predictions()__ que incluye cada predicción en una nueva columna.

---

Esto combinado nos da:

```r
grid <- sim3 %>%
  data_grid(x1, x2) %>%
  gather_predictions(mod1, mod2)
grid
```

```
## # A tibble: 80 x 4
##    model    x1 x2     pred
##    <chr> <int> <fct> <dbl>
##  1 mod1      1 a      1.67
##  2 mod1      1 b      4.56
##  3 mod1      1 c      6.48
##  4 mod1      1 d      4.03
##  5 mod1      2 a      1.48
##  6 mod1      2 b      4.37
##  7 mod1      2 c      6.28
##  8 mod1      2 d      3.84
##  9 mod1      3 a      1.28
## 10 mod1      3 b      4.17
## # … with 70 more rows
```
…
