24-pres.utf8
…
* Trabajaremos con un conjunto de datos que parece aún más simple a primera vista: el número de vuelos que salen de NYC por día. 
* Dimensiones — solo 365 filas y 2 columnas — 
* Comenzaremos contando el __número de vuelos por día__ y visualizándolos con ggplot2.

```r
vuelos_por_dia <- vuelos %>% 
  mutate(fecha = make_date(anio, mes, dia)) %>% 
  group_by(fecha) %>% 
  summarise(n = n())
vuelos_por_dia
```

```
## # A tibble: 365 x 2
##    fecha          n
##    <date>     <int>
##  1 2013-01-01   842
##  2 2013-01-02   943
##  3 2013-01-03   914
##  4 2013-01-04   915
##  5 2013-01-05   720
##  6 2013-01-06   832
##  7 2013-01-07   933
##  8 2013-01-08   899
##  9 2013-01-09   902
## 10 2013-01-10   932
## # … with 355 more rows
```
…
