Construcción de Modelos - Chapter 24
…
Hasta aquí nada realmente interesante, pero probablemente valga la pena pasar tiempo considerando si esto significa un problema con nuestro modelo, o si hay errores en los datos. Si hay errores en los datos, esta podría ser una oportunidad para comprar diamantes que fueron incorrectamente tasados con valor bajo.

¿Qué afecta el número de vuelos diarios?

Trabajaremos a través de un proceso similar para un conjunto de datos que parece aún más simple a primera vista: el número de vuelos que salen de NYC por día. Este es un conjunto realmente pequeño de datos — solo 365 filas y 2 columnas — y no vamos a terminar con un modelo completamente realizado, pero como veras, los pasos en el camino nos ayudarán a entender mejor los datos. Comenzaremos contando el número de vuelos por día y visualizándolos con ggplot2.

vuelos_por_dia <- vuelos %>% 
  mutate(fecha = make_date(anio, mes, dia)) %>% 
  group_by(fecha) %>% 
  summarise(n = n())
vuelos_por_dia

## # A tibble: 365 x 2
##    fecha          n
##    <date>     <int>
##  1 2013-01-01   842
##  2 2013-01-02   943
##  3 2013-01-03   914
##  4 2013-01-04   915
##  5 2013-01-05   720
##  6 2013-01-06   832
##  7 2013-01-07   933
##  8 2013-01-08   899
##  9 2013-01-09   902
## 10 2013-01-10   932
## # … with 355 more rows
…
